{
  "artists" : {
    "items" : [ {
      "external_urls" : {
        "spotify" : "https://open.spotify.com/artist/00tVTdpEhQQw1bqdu8RCx2"
      },
      "followers" : {
        "href" : null,
        "total" : 836558
      },
      "genres" : [ "album rock", "art rock", "blues rock", "classic rock", "hard rock", "metal", "psychedelic rock", "rock", "soft rock" ],
      "href" : "https://api.spotify.com/v1/artists/00tVTdpEhQQw1bqdu8RCx2",
      "id" : "00tVTdpEhQQw1bqdu8RCx2",
      "images" : [ {
        "height" : 640,
        "url" : "https://i.scdn.co/image/7baef9857e572fd10f069314076a99e9e9e82629",
        "width" : 640
      }, {
        "height" : 320,
        "url" : "https://i.scdn.co/image/88d0a5d8339992dc78f111fd18ad27dee41f51b2",
        "width" : 320
      }, {
        "height" : 160,
        "url" : "https://i.scdn.co/image/547ccb5a34f48ed7d0f44dc57c9418c98937738b",
        "width" : 160
      } ],
      "name" : "Blue Öyster Cult",
      "popularity" : 66,
      "type" : "artist",
      "uri" : "spotify:artist:00tVTdpEhQQw1bqdu8RCx2"
    }, {
      "external_urls" : {
        "spotify" : "https://open.spotify.com/artist/066X20Nz7iquqkkCW6Jxy6"
      },
      "followers" : {
        "href" : null,
        "total" : 705566
      },
      "genres" : [ "alternative dance", "alternative rock", "dance-punk", "electronic rock", "electronica", "garage rock", "indie pop", "indie rock", "indietronica", "modern rock", "new rave", "rock" ],
      "href" : "https://api.spotify.com/v1/artists/066X20Nz7iquqkkCW6Jxy6",
      "id" : "066X20Nz7iquqkkCW6Jxy6",
      "images" : [ {
        "height" : 640,
        "url" : "https://i.scdn.co/image/f8d0cb93fc39fdcdfab0ea7b4ea64d449cbb1aa4",
        "width" : 640
      }, {
        "height" : 320,
        "url" : "https://i.scdn.co/image/1137103dc825ade57c5989c20c4878f7bf345aeb",
        "width" : 320
      }, {
        "height" : 160,
        "url" : "https://i.scdn.co/image/4573dfe22b33df366096c46528b88aa91888c14a",
        "width" : 160
      } ],
      "name" : "LCD Soundsystem",
      "popularity" : 65,
      "type" : "artist",
      "uri" : "spotify:artist:066X20Nz7iquqkkCW6Jxy6"
    }, {
      "external_urls" : {
        "spotify" : "https://open.spotify.com/artist/0KydPQPUUoTNhmiHKOg5Er"
      },
      "followers" : {
        "href" : null,
        "total" : 267990
      },
      "genres" : [ "alternative dance", "chillwave", "dance-punk", "denton tx indie", "dream pop", "electropop", "experimental pop", "indie pop", "indietronica", "neo-synthpop", "new rave", "nu gaze", "shimmer pop" ],
      "href" : "https://api.spotify.com/v1/artists/0KydPQPUUoTNhmiHKOg5Er",
      "id" : "0KydPQPUUoTNhmiHKOg5Er",
      "images" : [ {
        "height" : 561,
        "url" : "https://i.scdn.co/image/0a7117fe1f32cdebed99402fe3f56bf5234e3977",
        "width" : 543
      }, {
        "height" : 207,
        "url" : "https://i.scdn.co/image/8ce6ae0bc9e1a1d43d81c1d467e8f78d498a03eb",
        "width" : 200
      }, {
        "height" : 66,
        "url" : "https://i.scdn.co/image/a280bc330f3d7ae0766168731511a8636a4fdfa5",
        "width" : 64
      } ],
      "name" : "Neon Indian",
      "popularity" : 52,
      "type" : "artist",
      "uri" : "spotify:artist:0KydPQPUUoTNhmiHKOg5Er"
    }, {
      "external_urls" : {
        "spotify" : "https://open.spotify.com/artist/0ONHkAv9pCAFxb0zJwDNTy"
      },
      "followers" : {
        "href" : null,
        "total" : 1602011
      },
      "genres" : [ "gangster rap", "hip hop", "pop rap", "rap", "southern hip hop", "trap", "underground hip hop" ],
      "href" : "https://api.spotify.com/v1/artists/0ONHkAv9pCAFxb0zJwDNTy",
      "id" : "0ONHkAv9pCAFxb0zJwDNTy",
      "images" : [ {
        "height" : 640,
        "url" : "https://i.scdn.co/image/9af694963c6fea22c1f1ec23771b9c39fd13c281",
        "width" : 640
      }, {
        "height" : 320,
        "url" : "https://i.scdn.co/image/16e6e8612cdefe7d6b2521db54442a9f42e3ee42",
        "width" : 320
      }, {
        "height" : 160,
        "url" : "https://i.scdn.co/image/54b04bad555cf5f2db597896cf43fea08273791c",
        "width" : 160
      } ],
      "name" : "Pusha T",
      "popularity" : 72,
      "type" : "artist",
      "uri" : "spotify:artist:0ONHkAv9pCAFxb0zJwDNTy"
    }, {
      "external_urls" : {
        "spotify" : "https://open.spotify.com/artist/0S7Zur2g8YhqlzqtlYStli"
      },
      "followers" : {
        "href" : null,
        "total" : 201504
      },
      "genres" : [ "alternative rock", "art punk", "art rock", "dance rock", "dance-punk", "dream pop", "experimental", "experimental rock", "folk rock", "garage rock", "new wave", "no wave", "noise pop", "post-punk", "protopunk", "psychedelic rock", "punk", "punk blues", "rock" ],
      "href" : "https://api.spotify.com/v1/artists/0S7Zur2g8YhqlzqtlYStli",
      "id" : "0S7Zur2g8YhqlzqtlYStli",
      "images" : [ {
        "height" : 726,
        "url" : "https://i.scdn.co/image/26da5a74d4273e0e9116ac7cbb4443def62fa3be",
        "width" : 1000
      }, {
        "height" : 465,
        "url" : "https://i.scdn.co/image/2af44d37ecdcac20872f193186daf6d24901c00f",
        "width" : 640
      }, {
        "height" : 145,
        "url" : "https://i.scdn.co/image/08b33b7b316f984ee203e7907303a76ce2153333",
        "width" : 200
      }, {
        "height" : 46,
        "url" : "https://i.scdn.co/image/271e7e7491fa4aa7b2a11e8dc6ebf8eb3f746ce1",
        "width" : 63
      } ],
      "name" : "Television",
      "popularity" : 52,
      "type" : "artist",
      "uri" : "spotify:artist:0S7Zur2g8YhqlzqtlYStli"
    }, {
      "external_urls" : {
        "spotify" : "https://open.spotify.com/artist/0Y4inQK6OespitzD6ijMwb"
      },
      "followers" : {
        "href" : null,
        "total" : 437502
      },
      "genres" : [ "alternative hip hop", "escape room", "hip hop", "rap", "southern hip hop", "underground hip hop" ],
      "href" : "https://api.spotify.com/v1/artists/0Y4inQK6OespitzD6ijMwb",
      "id" : "0Y4inQK6OespitzD6ijMwb",
      "images" : [ {
        "height" : 640,
        "url" : "https://i.scdn.co/image/86a21cdcce1761187cd8ec19916d8222389971c3",
        "width" : 640
      }, {
        "height" : 320,
        "url" : "https://i.scdn.co/image/bc211a2faf210d8d6fc1db9cc070acd197a3e0d5",
        "width" : 320
      }, {
        "height" : 160,
        "url" : "https://i.scdn.co/image/dc14ef027ef430a0b30f075ce9b270d8c051f7a7",
        "width" : 160
      } ],
      "name" : "Freddie Gibbs",
      "popularity" : 66,
      "type" : "artist",
      "uri" : "spotify:artist:0Y4inQK6OespitzD6ijMwb"
    }, {
      "external_urls" : {
        "spotify" : "https://open.spotify.com/artist/0Y5tJX1MQlPlqiwlOH1tJY"
      },
      "followers" : {
        "href" : null,
        "total" : 8430765
      },
      "genres" : [ "rap" ],
      "href" : "https://api.spotify.com/v1/artists/0Y5tJX1MQlPlqiwlOH1tJY",
      "id" : "0Y5tJX1MQlPlqiwlOH1tJY",
      "images" : [ {
        "height" : 640,
        "url" : "https://i.scdn.co/image/fec51156ed94b7ee30fbd4c7fd29b4a840e7daec",
        "width" : 640
      }, {
        "height" : 320,
        "url" : "https://i.scdn.co/image/67497c55a766af3f57860c88562314a313fc137c",
        "width" : 320
      }, {
        "height" : 160,
        "url" : "https://i.scdn.co/image/d7a58203669d00936dd5b89ba6f6e192c119532d",
        "width" : 160
      } ],
      "name" : "Travis Scott",
      "popularity" : 93,
      "type" : "artist",
      "uri" : "spotify:artist:0Y5tJX1MQlPlqiwlOH1tJY"
    }, {
      "external_urls" : {
        "spotify" : "https://open.spotify.com/artist/0Y6dVaC9DZtPNH4591M42W"
      },
      "followers" : {
        "href" : null,
        "total" : 104955
      },
      "genres" : [ "art pop", "chillwave", "indie garage rock", "indie pop", "indie rock", "indietronica", "shimmer pop" ],
      "href" : "https://api.spotify.com/v1/artists/0Y6dVaC9DZtPNH4591M42W",
      "id" : "0Y6dVaC9DZtPNH4591M42W",
      "images" : [ {
        "height" : 640,
        "url" : "https://i.scdn.co/image/ab67616d0000b2733cfca71bb96dacbb1c0fb2bf",
        "width" : 640
      }, {
        "height" : 300,
        "url" : "https://i.scdn.co/image/ab67616d00001e023cfca71bb96dacbb1c0fb2bf",
        "width" : 300
      }, {
        "height" : 64,
        "url" : "https://i.scdn.co/image/ab67616d000048513cfca71bb96dacbb1c0fb2bf",
        "width" : 64
      } ],
      "name" : "TV Girl",
      "popularity" : 58,
      "type" : "artist",
      "uri" : "spotify:artist:0Y6dVaC9DZtPNH4591M42W"
    }, {
      "external_urls" : {
        "spotify" : "https://open.spotify.com/artist/0bsV0sUjnCuCTYOnNHQl3E"
      },
      "followers" : {
        "href" : null,
        "total" : 83273
      },
      "genres" : [ "art pop", "art rock", "chamber pop", "chamber psych", "collage pop", "dream pop", "electra", "escape room", "experimental pop", "freak folk", "indie rock", "la indie", "noise pop", "slow core" ],
      "href" : "https://api.spotify.com/v1/artists/0bsV0sUjnCuCTYOnNHQl3E",
      "id" : "0bsV0sUjnCuCTYOnNHQl3E",
      "images" : [ {
        "height" : 640,
        "url" : "https://i.scdn.co/image/e8c444b7238c7219397f8d06ee586e08ca1e8119",
        "width" : 640
      }, {
        "height" : 320,
        "url" : "https://i.scdn.co/image/63ebb6d8158b85a5dc20269f0983e1ff8304b97f",
        "width" : 320
      }, {
        "height" : 160,
        "url" : "https://i.scdn.co/image/fac4b79192637c1c7683f366aec512008db87203",
        "width" : 160
      } ],
      "name" : "Julia Holter",
      "popularity" : 45,
      "type" : "artist",
      "uri" : "spotify:artist:0bsV0sUjnCuCTYOnNHQl3E"
    }, {
      "external_urls" : {
        "spotify" : "https://open.spotify.com/artist/0cmqAB0gdr6ObvjNrQJAQr"
      },
      "followers" : {
        "href" : null,
        "total" : 18616
      },
      "genres" : [ "alternative hip hop", "boom bap", "east coast hip hop" ],
      "href" : "https://api.spotify.com/v1/artists/0cmqAB0gdr6ObvjNrQJAQr",
      "id" : "0cmqAB0gdr6ObvjNrQJAQr",
      "images" : [ {
        "height" : 640,
        "url" : "https://i.scdn.co/image/ab67616d0000b273c107e15aeb42b2e3f17da0bf",
        "width" : 640
      }, {
        "height" : 300,
        "url" : "https://i.scdn.co/image/ab67616d00001e02c107e15aeb42b2e3f17da0bf",
        "width" : 300
      }, {
        "height" : 64,
        "url" : "https://i.scdn.co/image/ab67616d00004851c107e15aeb42b2e3f17da0bf",
        "width" : 64
      } ],
      "name" : "Ka",
      "popularity" : 33,
      "type" : "artist",
      "uri" : "spotify:artist:0cmqAB0gdr6ObvjNrQJAQr"
    }, {
      "external_urls" : {
        "spotify" : "https://open.spotify.com/artist/0k17h0D3J5VfsdmQ1iZtE9"
      },
      "followers" : {
        "href" : null,
        "total" : 11784181
      },
      "genres" : [ "album rock", "art rock", "classic rock", "progressive rock", "psychedelic rock", "rock", "symphonic rock" ],
      "href" : "https://api.spotify.com/v1/artists/0k17h0D3J5VfsdmQ1iZtE9",
      "id" : "0k17h0D3J5VfsdmQ1iZtE9",
      "images" : [ {
        "height" : 977,
        "url" : "https://i.scdn.co/image/e69f71e2be4b67b82af90fb8e9d805715e0684fa",
        "width" : 1000
      }, {
        "height" : 625,
        "url" : "https://i.scdn.co/image/d011c95081cd9a329e506abd7ded47535d524a07",
        "width" : 640
      }, {
        "height" : 195,
        "url" : "https://i.scdn.co/image/f0a39a8a196a87a7236bdcf8a8708f6d5d3547cc",
        "width" : 200
      }, {
        "height" : 63,
        "url" : "https://i.scdn.co/image/ec1fb7127168dbaa962404031409c5a293b95ec6",
        "width" : 64
      } ],
      "name" : "Pink Floyd",
      "popularity" : 82,
      "type" : "artist",
      "uri" : "spotify:artist:0k17h0D3J5VfsdmQ1iZtE9"
    }, {
      "external_urls" : {
        "spotify" : "https://open.spotify.com/artist/0tC995Rfn9k2l7nqgCZsV7"
      },
      "followers" : {
        "href" : null,
        "total" : 194154
      },
      "genres" : [ "desi pop", "folk-pop", "indian indie", "modern bollywood" ],
      "href" : "https://api.spotify.com/v1/artists/0tC995Rfn9k2l7nqgCZsV7",
      "id" : "0tC995Rfn9k2l7nqgCZsV7",
      "images" : [ {
        "height" : 640,
        "url" : "https://i.scdn.co/image/964c49cd1feb1bd4f6d688af124a489545f01c42",
        "width" : 640
      }, {
        "height" : 320,
        "url" : "https://i.scdn.co/image/aa2661df2b4a6dc06b74f433f390a10df1d806f7",
        "width" : 320
      }, {
        "height" : 160,
        "url" : "https://i.scdn.co/image/a2cd9f5cfb81687beed9e574730fe4c3c14bc505",
        "width" : 160
      } ],
      "name" : "Prateek Kuhad",
      "popularity" : 60,
      "type" : "artist",
      "uri" : "spotify:artist:0tC995Rfn9k2l7nqgCZsV7"
    }, {
      "external_urls" : {
        "spotify" : "https://open.spotify.com/artist/0yNLKJebCb8Aueb54LYya3"
      },
      "followers" : {
        "href" : null,
        "total" : 1129662
      },
      "genres" : [ "art rock", "britpop", "dance rock", "madchester", "new romantic", "new wave", "new wave pop", "permanent wave", "post-punk", "rock", "synthpop", "uk post-punk" ],
      "href" : "https://api.spotify.com/v1/artists/0yNLKJebCb8Aueb54LYya3",
      "id" : "0yNLKJebCb8Aueb54LYya3",
      "images" : [ {
        "height" : 640,
        "url" : "https://i.scdn.co/image/45c02cbba9e991c4edc03f856a92f94bc3984f08",
        "width" : 640
      }, {
        "height" : 320,
        "url" : "https://i.scdn.co/image/5cd9a0a5a6550933f6072b32fa9be38f4faa4a9e",
        "width" : 320
      }, {
        "height" : 160,
        "url" : "https://i.scdn.co/image/7563d2c9a74f27964eae9720460ee63d18881ce0",
        "width" : 160
      } ],
      "name" : "New Order",
      "popularity" : 69,
      "type" : "artist",
      "uri" : "spotify:artist:0yNLKJebCb8Aueb54LYya3"
    }, {
      "external_urls" : {
        "spotify" : "https://open.spotify.com/artist/13ubrt8QOOCPljQ2FL1Kca"
      },
      "followers" : {
        "href" : null,
        "total" : 6681629
      },
      "genres" : [ "east coast hip hop", "hip hop", "pop rap", "rap", "southern hip hop", "trap" ],
      "href" : "https://api.spotify.com/v1/artists/13ubrt8QOOCPljQ2FL1Kca",
      "id" : "13ubrt8QOOCPljQ2FL1Kca",
      "images" : [ {
        "height" : 640,
        "url" : "https://i.scdn.co/image/cce607c4d975ae49d68b484eaef51a6413fa73b1",
        "width" : 640
      }, {
        "height" : 320,
        "url" : "https://i.scdn.co/image/80109a31021dd821ae66d6d47ca2af399463a56c",
        "width" : 320
      }, {
        "height" : 160,
        "url" : "https://i.scdn.co/image/ea6a2be8645a788d0fa1eb1adb6a02f8bc3148fc",
        "width" : 160
      } ],
      "name" : "A$AP Rocky",
      "popularity" : 84,
      "type" : "artist",
      "uri" : "spotify:artist:13ubrt8QOOCPljQ2FL1Kca"
    }, {
      "external_urls" : {
        "spotify" : "https://open.spotify.com/artist/13vr2QqzoWOWDyaAZDuEGO"
      },
      "followers" : {
        "href" : null,
        "total" : 10759
      },
      "genres" : [ "chillhop" ],
      "href" : "https://api.spotify.com/v1/artists/13vr2QqzoWOWDyaAZDuEGO",
      "id" : "13vr2QqzoWOWDyaAZDuEGO",
      "images" : [ {
        "height" : 640,
        "url" : "https://i.scdn.co/image/3c9f6fd9e49a928d493f428e900f582828d80bfb",
        "width" : 640
      }, {
        "height" : 320,
        "url" : "https://i.scdn.co/image/45252b643df4a8a61639adb3415370f8a1bce374",
        "width" : 320
      }, {
        "height" : 160,
        "url" : "https://i.scdn.co/image/6a11ebe0ee3ddfe131666b272766b7d94da3cc22",
        "width" : 160
      } ],
      "name" : "Kenny Segal",
      "popularity" : 48,
      "type" : "artist",
      "uri" : "spotify:artist:13vr2QqzoWOWDyaAZDuEGO"
    }, {
      "external_urls" : {
        "spotify" : "https://open.spotify.com/artist/14r9dR01KeBLFfylVSKCZQ"
      },
      "followers" : {
        "href" : null,
        "total" : 825659
      },
      "genres" : [ "acoustic pop", "irish rock", "irish singer-songwriter", "neo mellow", "singer-songwriter" ],
      "href" : "https://api.spotify.com/v1/artists/14r9dR01KeBLFfylVSKCZQ",
      "id" : "14r9dR01KeBLFfylVSKCZQ",
      "images" : [ {
        "height" : 1409,
        "url" : "https://i.scdn.co/image/2e30a95ed5539cc08cc339439a596db30304d31a",
        "width" : 1000
      }, {
        "height" : 902,
        "url" : "https://i.scdn.co/image/e8e6da146e50f6ecf637a59be3ec5ca5a8b2c89c",
        "width" : 640
      }, {
        "height" : 282,
        "url" : "https://i.scdn.co/image/7b2cde62c87ceb07859b16e4e9f5cd97d82c36d3",
        "width" : 200
      }, {
        "height" : 90,
        "url" : "https://i.scdn.co/image/9e4aff40a033eb55197826d5786cc219930276f6",
        "width" : 64
      } ],
      "name" : "Damien Rice",
      "popularity" : 64,
      "type" : "artist",
      "uri" : "spotify:artist:14r9dR01KeBLFfylVSKCZQ"
    }, {
      "external_urls" : {
        "spotify" : "https://open.spotify.com/artist/15UsOTVnJzReFVN1VCnxy4"
      },
      "followers" : {
        "href" : null,
        "total" : 18679676
      },
      "genres" : [ "emo rap", "miami hip hop" ],
      "href" : "https://api.spotify.com/v1/artists/15UsOTVnJzReFVN1VCnxy4",
      "id" : "15UsOTVnJzReFVN1VCnxy4",
      "images" : [ {
        "height" : 640,
        "url" : "https://i.scdn.co/image/942afa81f0a2298ead0c154fb7b4b606de48d9e6",
        "width" : 640
      }, {
        "height" : 320,
        "url" : "https://i.scdn.co/image/e481d86945e12359020994fdf613ded2d20c9e54",
        "width" : 320
      }, {
        "height" : 160,
        "url" : "https://i.scdn.co/image/ee19889ff41b7aa7417e8bc1c042510f32191ba0",
        "width" : 160
      } ],
      "name" : "XXXTENTACION",
      "popularity" : 91,
      "type" : "artist",
      "uri" : "spotify:artist:15UsOTVnJzReFVN1VCnxy4"
    }, {
      "external_urls" : {
        "spotify" : "https://open.spotify.com/artist/163tK9Wjr9P9DmM0AVK7lm"
      },
      "followers" : {
        "href" : null,
        "total" : 5571415
      },
      "genres" : [ "art pop", "dance pop", "electropop", "metropopolis", "nz pop", "pop", "post-teen pop" ],
      "href" : "https://api.spotify.com/v1/artists/163tK9Wjr9P9DmM0AVK7lm",
      "id" : "163tK9Wjr9P9DmM0AVK7lm",
      "images" : [ {
        "height" : 640,
        "url" : "https://i.scdn.co/image/d25fc756cd04c8b3ea196b7c07c6d057685cc405",
        "width" : 640
      }, {
        "height" : 320,
        "url" : "https://i.scdn.co/image/ca2e7772dcdfd03401cdd0c66aeee1bea8ea3904",
        "width" : 320
      }, {
        "height" : 160,
        "url" : "https://i.scdn.co/image/2f22ea3ea1597887d86441a030204dac49a74a81",
        "width" : 160
      } ],
      "name" : "Lorde",
      "popularity" : 78,
      "type" : "artist",
      "uri" : "spotify:artist:163tK9Wjr9P9DmM0AVK7lm"
    }, {
      "external_urls" : {
        "spotify" : "https://open.spotify.com/artist/1HOeqtP7tHkKNJNLzQ2tnr"
      },
      "followers" : {
        "href" : null,
        "total" : 196444
      },
      "genres" : [ "alternative dance", "english indie rock", "experimental pop", "indie rock", "modern alternative rock", "modern rock", "new rave", "shimmer pop" ],
      "href" : "https://api.spotify.com/v1/artists/1HOeqtP7tHkKNJNLzQ2tnr",
      "id" : "1HOeqtP7tHkKNJNLzQ2tnr",
      "images" : [ {
        "height" : 640,
        "url" : "https://i.scdn.co/image/714c6fcc837d2326ee812a405bf68a1880c27ebf",
        "width" : 640
      }, {
        "height" : 320,
        "url" : "https://i.scdn.co/image/45e2b2fada5b644057b503bc2dd17a73f4a0cff1",
        "width" : 320
      }, {
        "height" : 160,
        "url" : "https://i.scdn.co/image/00d097f04df3c2b2a98d89a4a96a928943955c8e",
        "width" : 160
      } ],
      "name" : "Everything Everything",
      "popularity" : 54,
      "type" : "artist",
      "uri" : "spotify:artist:1HOeqtP7tHkKNJNLzQ2tnr"
    }, {
      "external_urls" : {
        "spotify" : "https://open.spotify.com/artist/1LhK7wn59Hq6GNN4sUS3ih"
      },
      "followers" : {
        "href" : null,
        "total" : 68132
      },
      "genres" : [ "experimental rock", "mathcore", "noise pop", "noise rock", "post-hardcore", "rhode island indie" ],
      "href" : "https://api.spotify.com/v1/artists/1LhK7wn59Hq6GNN4sUS3ih",
      "id" : "1LhK7wn59Hq6GNN4sUS3ih",
      "images" : [ {
        "height" : 640,
        "url" : "https://i.scdn.co/image/d688e62f6a2d670c980aedfc3ddb1f55f347a65c",
        "width" : 640
      }, {
        "height" : 320,
        "url" : "https://i.scdn.co/image/dde07482e542ea1c9b2d0153234448f7d309592c",
        "width" : 320
      }, {
        "height" : 160,
        "url" : "https://i.scdn.co/image/85d1760d99b20f924fcc6e2a05a0ad789cfa690d",
        "width" : 160
      } ],
      "name" : "Daughters",
      "popularity" : 46,
      "type" : "artist",
      "uri" : "spotify:artist:1LhK7wn59Hq6GNN4sUS3ih"
    } ],
    "next" : "https://api.spotify.com/v1/me/following?type=artist&after=1LhK7wn59Hq6GNN4sUS3ih&limit=20",
    "total" : 125,
    "cursors" : {
      "after" : "1LhK7wn59Hq6GNN4sUS3ih"
    },
    "limit" : 20,
    "href" : "https://api.spotify.com/v1/me/following?type=artist&limit=20"
  }
}